{
    "fluentMethods": true,
    "relationships": [],
    "fields": [
        {
            "fieldName": "profilId",
            "fieldType": "Long",
            "fieldValidateRules": [
                "required"
            ]
        }
    ],
    "changelogDate": "20180524120713",
    "entityTableName": "candidat",
    "dto": "no",
    "pagination": "no",
    "service": "no",
    "jpaMetamodelFiltering": false
}