{
    "fluentMethods": true,
    "relationships": [
        {
            "relationshipType": "one-to-one",
            "relationshipName": "idProfil",
            "otherEntityName": "profil",
            "otherEntityField": "id",
            "ownerSide": true,
            "otherEntityRelationshipName": "etude_Profil"
        },
        {
            "relationshipType": "one-to-one",
            "relationshipName": "idEtude",
            "otherEntityName": "etude",
            "otherEntityField": "id",
            "ownerSide": true,
            "otherEntityRelationshipName": "etude_Profil"
        }
    ],
    "fields": [
        {
            "fieldName": "anneeEtudeDebut",
            "fieldType": "LocalDate"
        },
        {
            "fieldName": "anneEtudeFin",
            "fieldType": "LocalDate"
        },
        {
            "fieldName": "comment",
            "fieldType": "String"
        }
    ],
    "changelogDate": "20180524120722",
    "entityTableName": "etude_profil",
    "dto": "no",
    "pagination": "no",
    "service": "no",
    "jpaMetamodelFiltering": false
}