{
    "fluentMethods": true,
    "relationships": [],
    "fields": [
        {
            "fieldName": "libelle",
            "fieldType": "String",
            "fieldValidateRules": [
                "required"
            ]
        }
    ],
    "changelogDate": "20180524120725",
    "entityTableName": "experience",
    "dto": "no",
    "pagination": "no",
    "service": "no",
    "jpaMetamodelFiltering": false
}