{
    "fluentMethods": true,
    "relationships": [
        {
            "relationshipType": "one-to-one",
            "relationshipValidateRules": "required",
            "relationshipName": "candidat",
            "otherEntityName": "candidat",
            "otherEntityField": "id",
            "ownerSide": true,
            "otherEntityRelationshipName": "jobResponse"
        },
        {
            "relationshipType": "one-to-one",
            "relationshipValidateRules": "required",
            "relationshipName": "jobOffer",
            "otherEntityName": "jobOffer",
            "otherEntityField": "id",
            "ownerSide": true,
            "otherEntityRelationshipName": "jobResponse"
        }
    ],
    "fields": [
        {
            "fieldName": "dateResponse",
            "fieldType": "LocalDate",
            "fieldValidateRules": [
                "required"
            ]
        },
        {
            "fieldName": "comment",
            "fieldType": "String",
            "fieldValidateRules": [
                "required"
            ]
        }
    ],
    "changelogDate": "20180524120719",
    "entityTableName": "job_response",
    "dto": "no",
    "pagination": "no",
    "service": "no",
    "jpaMetamodelFiltering": false
}